{
  "name": "billing_type",
  "base": "PersistedModel",
  "idInjection": true,
  "options": {
    "validateUpsert": true
  },
  "properties": {
    "name": {
      "type": "string",
      "required": true
    }
  },
  "validations": [],
  "relations": {
    "billingTypes": {
      "type": "hasOne",
      "model": "billing_type",
      "foreignKey": ""
    }
  },
  "acls": [],
  "methods": {}
}
