{
  "name": "billing_group",
  "plural": "billing_groups",
  "base": "PersistedModel",
  "idInjection": true,
  "options": {
    "validateUpsert": true
  },
  "properties": {
    "name": {
      "type": "string",
      "required": true
    },
    "description": {
      "type": "object",
      "required": true
    },
    "price": {
      "type": "number",
      "required": true
    }
  },
  "validations": [],
  "relations": {
    "billingCurrencies": {
      "type": "hasOne",
      "model": "billing_currency",
      "foreignKey": ""
    },
    "billingTaxes": {
      "type": "hasOne",
      "model": "billing_tax",
      "foreignKey": ""
    }
  },
  "acls": [],
  "methods": {}
}
