{
  "name": "billing_transaction",
  "base": "PersistedModel",
  "idInjection": true,
  "options": {
    "validateUpsert": true
  },
  "properties": {
    "date": {
      "type": "date",
      "required": true
    },
    "description": {
      "type": "object",
      "required": true
    },
    "billing_type_details": {
      "type": "object",
      "required": true
    },
    "billing_type_response": {
      "type": "object",
      "required": true
    },
    "parent_transaction_id": {
      "type": "number"
    }
  },
  "validations": [],
  "relations": {
    "billingAccount": {
      "type": "belongsTo",
      "model": "billing_account",
      "foreignKey": "billing_account_id"
    },
    "billingCycleTypes": {
      "type": "hasOne",
      "model": "billing_cycle_type",
      "foreignKey": ""
    },
    "billingGroups": {
      "type": "hasOne",
      "model": "billing_group",
      "foreignKey": ""
    },
    "billingStatuses": {
      "type": "hasOne",
      "model": "billing_status",
      "foreignKey": ""
    }
  },
  "acls": [],
  "methods": {}
}
